Homework 3
…
16.(5points) Construct the natural log for the following variables:

#since R has a base function of the natural log for log, we can use mutate and log to make our new variables
fdi_df <- fdi_df %>% mutate(ln_trade = log(tradevalue),
                            ln_gdp_o = log(gdp_source),
                            ln_gdp_d = log(gdp_host),
                            ln_pcgdp_gap = log(gdpcap_source/gdpcap_host),
                            ln_dist = log(dist),
                            ln_entrycost = log(entry_cost_d),
                            ratio_fdi_trade = fdi_projects/tradevalue)
#print it out
fdi_df

## # A tibble: 23,181 x 25
##     year sourcecountry sourceiso hostcountry hostiso fdi_projects
##    <dbl> <chr>         <chr>     <chr>       <chr>          <dbl>
##  1  2003 UAE           ARE       Australia   AUS                1
##  2  2003 UAE           ARE       Austria     AUT                2
##  3  2003 UAE           ARE       Bangladesh  BGD                1
##  4  2003 UAE           ARE       Switzerland CHE                1
##  5  2003 UAE           ARE       China       CHN                2
##  6  2003 UAE           ARE       Egypt       EGY                2
##  7  2003 UAE           ARE       Spain       ESP                1
##  8  2003 UAE           ARE       Finland     FIN                1
##  9  2003 UAE           ARE       UK          GBR                1
## 10  2003 UAE           ARE       India       IND                3
## #  with 23,171 more rows, and 19 more variables: capitalinvestment <dbl>,
## #   tradevalue <dbl>, border <dbl>, comlang <dbl>, comcol <dbl>, dist <dbl>,
## #   gdp_source <dbl>, gdp_host <dbl>, gdpcap_source <dbl>, gdpcap_host <dbl>,
## #   fta <dbl>, entry_cost_d <dbl>, ln_trade <dbl>, ln_gdp_o <dbl>,
## #   ln_gdp_d <dbl>, ln_pcgdp_gap <dbl>, ln_dist <dbl>, ln_entrycost <dbl>,
## #   ratio_fdi_trade <dbl>
…
