…
```r
#now let's make our data fram into a data table
coal_dt = as.data.table(coal)

#clean the variable names in our data set
#names(coal) #check to make sure they're uniform
coal = 
  coal %>% 
  clean_names() %>%
  rename(yr = year, qtr = quarter, dest = coal_destination_country)
coal
```

```
## # A tibble: 11,118 × 14
##       yr   qtr type         customs_district coal_origin_coun… dest   steam_coal
##    <dbl> <dbl> <chr>        <chr>            <chr>             <chr>       <dbl>
##  1  2002     1 Coal Exports Anchorage, AK    United States     South…      66874
##  2  2002     1 Coal Exports Baltimore, MD    United States     Belgi…     125856
##  3  2002     1 Coal Exports Baltimore, MD    United States     Brazil         NA
##  4  2002     1 Coal Exports Baltimore, MD    United States     Canada     149335
##  5  2002     1 Coal Exports Baltimore, MD    United States     Germa…     153465
##  6  2002     1 Coal Exports Baltimore, MD    United States     Irela…     132827
##  7  2002     1 Coal Exports Baltimore, MD    United States     Israel     130693
##  8  2002     1 Coal Exports Baltimore, MD    United States     Jamai…       4049
##  9  2002     1 Coal Exports Baltimore, MD    United States     Nethe…     139460
## 10  2002     1 Coal Exports Baltimore, MD    United States     Norway      12116
## # … with 11,108 more rows, and 7 more variables: steam_revenue <dbl>,
## #   metallurgical <dbl>, metallurgical_revenue <dbl>, total <dbl>,
## #   total_revenue <dbl>, coke <dbl>, coke_revenue <dbl>
```
…
