…
    ## although coordinates are longitude/latitude, st_intersects assumes that they are planar
    ## although coordinates are longitude/latitude, st_intersects assumes that they are planar

``` r
gfw
```

    ## # A tibble: 160,482 × 5
    ##    date       lat_bin_center lon_bin_center fishing_hours region         
    ##    <date>              <dbl>          <dbl>         <dbl> <chr>          
    ##  1 2013-01-06           2.25           172.         14.6  Gilbert Islands
    ##  2 2014-04-08           2.25          -159.         14.5  Line Group     
    ##  3 2014-04-10           2.25          -160.          9.10 Line Group     
    ##  4 2012-01-24           2.25          -158.          3.66 Line Group     
    ##  5 2012-05-18           2.25           172.          7.81 Gilbert Islands
    ##  6 2016-08-30           2.25          -162.          1.81 Line Group     
    ##  7 2014-10-21           2.25          -159.          2.09 Line Group     
    ##  8 2012-05-06           2.25          -159.          2.05 Line Group     
    ##  9 2013-07-27           2.25          -159.          9.09 Line Group     
    ## 10 2012-11-10           2.25           176.          7.27 Gilbert Islands
    ## # … with 160,472 more rows

### 8.2) Get daily totals and complete missing dates

Take your `gfw` data frame and aggregate the “fishing\_hours” variable
up the day (i.e. date) by region level. You will also want to complete
any missing dates. Please make sure that the “fishing\_hours” column
from these filled-in missing dates are not left as `NA`; rather I want
you to replace them with zero.

``` r
#print it out
gfw
```

    ## # A tibble: 5,481 × 3
    ##    date       region          fishing_hours
    ##    <date>     <chr>                   <dbl>
    ##  1 2012-01-01 Gilbert Islands          24.6
    ##  2 2012-01-02 Gilbert Islands          39.6
    ##  3 2012-01-03 Gilbert Islands          62.2
    ##  4 2012-01-04 Gilbert Islands          84.9
    ##  5 2012-01-05 Gilbert Islands         141. 
    ##  6 2012-01-06 Gilbert Islands         120. 
    ##  7 2012-01-07 Gilbert Islands          85.0
    ##  8 2012-01-08 Gilbert Islands          53.4
    ##  9 2012-01-09 Gilbert Islands          94.5
    ## 10 2012-01-10 Gilbert Islands         265. 
    ## # … with 5,471 more rows
…
    ## Joining, by = "region"

    ## `summarise()` has grouped output by 'date'. You can override using the `.groups` argument.

``` r
gfw
```

    ## # A tibble: 3,654 × 3
    ##    date       region  fishing_hours_norm
    ##    <date>     <chr>                <dbl>
    ##  1 2012-01-01 Control            0.00965
    ##  2 2012-01-01 PIPA               0.0546 
    ##  3 2012-01-02 Control            0.0152 
    ##  4 2012-01-02 PIPA               0.0687 
    ##  5 2012-01-03 Control            0.0415 
    ##  6 2012-01-03 PIPA               0.0272 
    ##  7 2012-01-04 Control            0.0735 
    ##  8 2012-01-04 PIPA               0.0512 
    ##  9 2012-01-05 Control            0.100  
    ## 10 2012-01-05 PIPA               0.0169 
    ## # … with 3,644 more rows
…
## We also still need to complete the missing dates
bonus = 
  bonus %>%
  complete(
        date=seq(min(.$date), max(.$date), 1), 
        nesting(region), fill = list(fishing_hours_norm=0)
        )

bonus
```

    ## # A tibble: 3,654 × 3
    ##    date       region  fishing_hours_norm
    ##    <date>     <chr>                <dbl>
    ##  1 2012-01-01 Control            0.00965
    ##  2 2012-01-01 PIPA               0.0546 
    ##  3 2012-01-02 Control            0.0152 
    ##  4 2012-01-02 PIPA               0.0687 
    ##  5 2012-01-03 Control            0.0415 
    ##  6 2012-01-03 PIPA               0.0272 
    ##  7 2012-01-04 Control            0.0738 
    ##  8 2012-01-04 PIPA               0.0512 
    ##  9 2012-01-05 Control            0.102  
    ## 10 2012-01-05 PIPA               0.0169 
    ## # … with 3,644 more rows
…
